Clustering i ACP
…
[1] 53940    10

Com tenim moltes observacions considerarem un subconjunt del dataset de forma aleatòria. Seleccionarem 700 mostres aleatòries atès que el df original té massa observacions per a després poder realitzar els clusterings.

set.seed(123)
diamants <-  diamonds[sample(nrow(diamonds), 500, replace = FALSE),]
diamants

# A tibble: 500 × 10
   carat cut       color clarity depth table price     x     y     z
   <dbl> <ord>     <ord> <ord>   <dbl> <dbl> <int> <dbl> <dbl> <dbl>
 1  0.73 Ideal     I     VS1      60.7    56  2397  5.85  5.81  3.54
 2  0.7  Ideal     G     VS1      60.8    56  3300  5.73  5.8   3.51
 3  0.31 Ideal     D     VS1      61.6    55   713  4.3   4.33  2.66
 4  0.31 Ideal     H     VVS1     62.2    56   707  4.34  4.37  2.71
 5  0.31 Ideal     E     IF       60.9    55   987  4.39  4.41  2.68
 6  0.83 Good      E     SI1      63.7    59  3250  5.95  5.89  3.77
 7  0.51 Very Good D     VS2      62.5    58  1668  5.12  5.18  3.22
 8  0.7  Good      H     SI1      64.2    58  1771  5.59  5.62  3.6 
 9  0.4  Ideal     E     VS1      61.6    56  1053  4.73  4.78  2.93
10  1.1  Very Good I     SI1      61.2    61  4640  6.61  6.66  4.01
# ℹ 490 more rows
…
